ISO-10303-21;
HEADER;
/* Generated by software containing ST-Developer
 * from STEP Tools, Inc. (www.steptools.com) 
 */

FILE_DESCRIPTION(
/* description */ (''),
/* implementation_level */ '2;1');

FILE_NAME(
/* name */ 
'C:/Users/Luis Molina/Documents/FUNTRONICS/02 Amplificador an\X\E1logo
 con los beneficios digitales/CAD Documents - RoboAmp/STEP files/Dock 
- Boss Overdrive v27.step',
/* time_stamp */ '2021-11-10T10:40:22-07:00',
/* author */ (''),
/* organization */ (''),
/* preprocessor_version */ 'ST-DEVELOPER v18.1',
/* originating_system */ 'Autodesk Translation Framework v10.10.0.1391',

/* authorisation */ '');

FILE_SCHEMA (('AUTOMOTIVE_DESIGN { 1 0 10303 214 3 1 1 }'));
ENDSEC;

DATA;
#10=MECHANICAL_DESIGN_GEOMETRIC_PRESENTATION_REPRESENTATION('',(#13),#1083);
#11=SHAPE_REPRESENTATION_RELATIONSHIP('SRR','None',#1090,#12);
#12=ADVANCED_BREP_SHAPE_REPRESENTATION('',(#14),#1082);
#13=STYLED_ITEM('',(#1099),#14);
#14=MANIFOLD_SOLID_BREP('Body9',#667);
#15=FACE_BOUND('',#117,.T.);
#16=FACE_BOUND('',#118,.T.);
#17=FACE_BOUND('',#119,.T.);
#18=FACE_BOUND('',#120,.T.);
#19=FACE_BOUND('',#121,.T.);
#20=FACE_BOUND('',#122,.T.);
#21=FACE_BOUND('',#123,.T.);
#22=FACE_BOUND('',#125,.T.);
#23=FACE_BOUND('',#126,.T.);
#24=FACE_BOUND('',#127,.T.);
#25=FACE_BOUND('',#128,.T.);
#26=FACE_BOUND('',#129,.T.);
#27=FACE_BOUND('',#130,.T.);
#28=FACE_BOUND('',#131,.T.);
#29=PLANE('',#693);
#30=PLANE('',#694);
#31=PLANE('',#695);
#32=PLANE('',#696);
#33=PLANE('',#703);
#34=PLANE('',#704);
#35=PLANE('',#705);
#36=PLANE('',#709);
#37=PLANE('',#710);
#38=PLANE('',#711);
#39=PLANE('',#712);
#40=PLANE('',#713);
#41=PLANE('',#714);
#42=PLANE('',#715);
#43=PLANE('',#716);
#44=PLANE('',#717);
#45=PLANE('',#718);
#46=PLANE('',#719);
#47=PLANE('',#720);
#48=PLANE('',#721);
#49=PLANE('',#722);
#50=PLANE('',#723);
#51=PLANE('',#724);
#52=PLANE('',#725);
#53=PLANE('',#726);
#54=FACE_OUTER_BOUND('',#86,.T.);
#55=FACE_OUTER_BOUND('',#87,.T.);
#56=FACE_OUTER_BOUND('',#88,.T.);
#57=FACE_OUTER_BOUND('',#89,.T.);
#58=FACE_OUTER_BOUND('',#90,.T.);
#59=FACE_OUTER_BOUND('',#91,.T.);
#60=FACE_OUTER_BOUND('',#92,.T.);
#61=FACE_OUTER_BOUND('',#93,.T.);
#62=FACE_OUTER_BOUND('',#94,.T.);
#63=FACE_OUTER_BOUND('',#95,.T.);
#64=FACE_OUTER_BOUND('',#96,.T.);
#65=FACE_OUTER_BOUND('',#97,.T.);
#66=FACE_OUTER_BOUND('',#98,.T.);
#67=FACE_OUTER_BOUND('',#99,.T.);
#68=FACE_OUTER_BOUND('',#100,.T.);
#69=FACE_OUTER_BOUND('',#101,.T.);
#70=FACE_OUTER_BOUND('',#102,.T.);
#71=FACE_OUTER_BOUND('',#103,.T.);
#72=FACE_OUTER_BOUND('',#104,.T.);
#73=FACE_OUTER_BOUND('',#105,.T.);
#74=FACE_OUTER_BOUND('',#106,.T.);
#75=FACE_OUTER_BOUND('',#107,.T.);
#76=FACE_OUTER_BOUND('',#108,.T.);
#77=FACE_OUTER_BOUND('',#109,.T.);
#78=FACE_OUTER_BOUND('',#110,.T.);
#79=FACE_OUTER_BOUND('',#111,.T.);
#80=FACE_OUTER_BOUND('',#112,.T.);
#81=FACE_OUTER_BOUND('',#113,.T.);
#82=FACE_OUTER_BOUND('',#114,.T.);
#83=FACE_OUTER_BOUND('',#115,.T.);
#84=FACE_OUTER_BOUND('',#116,.T.);
#85=FACE_OUTER_BOUND('',#124,.T.);
#86=EDGE_LOOP('',(#448,#449,#450,#451));
#87=EDGE_LOOP('',(#452,#453,#454,#455));
#88=EDGE_LOOP('',(#456,#457,#458,#459));
#89=EDGE_LOOP('',(#460,#461,#462,#463));
#90=EDGE_LOOP('',(#464,#465,#466,#467));
#91=EDGE_LOOP('',(#468,#469,#470,#471));
#92=EDGE_LOOP('',(#472,#473,#474,#475));
#93=EDGE_LOOP('',(#476,#477,#478,#479));
#94=EDGE_LOOP('',(#480,#481,#482,#483));
#95=EDGE_LOOP('',(#484,#485,#486,#487));
#96=EDGE_LOOP('',(#488,#489,#490,#491));
#97=EDGE_LOOP('',(#492,#493,#494,#495));
#98=EDGE_LOOP('',(#496,#497,#498,#499));
#99=EDGE_LOOP('',(#500,#501,#502,#503));
#100=EDGE_LOOP('',(#504,#505,#506,#507));
#101=EDGE_LOOP('',(#508,#509,#510,#511));
#102=EDGE_LOOP('',(#512,#513,#514,#515));
#103=EDGE_LOOP('',(#516,#517,#518,#519));
#104=EDGE_LOOP('',(#520,#521,#522,#523));
#105=EDGE_LOOP('',(#524,#525,#526,#527));
#106=EDGE_LOOP('',(#528,#529,#530,#531));
#107=EDGE_LOOP('',(#532,#533,#534,#535));
#108=EDGE_LOOP('',(#536,#537,#538,#539));
#109=EDGE_LOOP('',(#540,#541,#542,#543));
#110=EDGE_LOOP('',(#544,#545,#546,#547));
#111=EDGE_LOOP('',(#548,#549,#550,#551));
#112=EDGE_LOOP('',(#552,#553,#554,#555));
#113=EDGE_LOOP('',(#556,#557,#558,#559));
#114=EDGE_LOOP('',(#560,#561,#562,#563));
#115=EDGE_LOOP('',(#564,#565,#566,#567));
#116=EDGE_LOOP('',(#568,#569,#570,#571,#572,#573,#574,#575,#576,#577,#578,
#579,#580,#581,#582,#583,#584,#585,#586,#587));
#117=EDGE_LOOP('',(#588));
#118=EDGE_LOOP('',(#589));
#119=EDGE_LOOP('',(#590,#591,#592,#593));
#120=EDGE_LOOP('',(#594));
#121=EDGE_LOOP('',(#595));
#122=EDGE_LOOP('',(#596));
#123=EDGE_LOOP('',(#597));
#124=EDGE_LOOP('',(#598,#599,#600,#601,#602,#603,#604,#605,#606,#607,#608,
#609,#610,#611,#612,#613,#614,#615,#616,#617));
#125=EDGE_LOOP('',(#618));
#126=EDGE_LOOP('',(#619));
#127=EDGE_LOOP('',(#620,#621,#622,#623));
#128=EDGE_LOOP('',(#624));
#129=EDGE_LOOP('',(#625));
#130=EDGE_LOOP('',(#626));
#131=EDGE_LOOP('',(#627));
#132=LINE('',#902,#208);
#133=LINE('',#908,#209);
#134=LINE('',#914,#210);
#135=LINE('',#920,#211);
#136=LINE('',#925,#212);
#137=LINE('',#927,#213);
#138=LINE('',#929,#214);
#139=LINE('',#930,#215);
#140=LINE('',#933,#216);
#141=LINE('',#935,#217);
#142=LINE('',#936,#218);
#143=LINE('',#939,#219);
#144=LINE('',#941,#220);
#145=LINE('',#942,#221);
#146=LINE('',#944,#222);
#147=LINE('',#945,#223);
#148=LINE('',#950,#224);
#149=LINE('',#956,#225);
#150=LINE('',#961,#226);
#151=LINE('',#963,#227);
#152=LINE('',#965,#228);
#153=LINE('',#966,#229);
#154=LINE('',#969,#230);
#155=LINE('',#971,#231);
#156=LINE('',#972,#232);
#157=LINE('',#975,#233);
#158=LINE('',#977,#234);
#159=LINE('',#978,#235);
#160=LINE('',#984,#236);
#161=LINE('',#987,#237);
#162=LINE('',#989,#238);
#163=LINE('',#990,#239);
#164=LINE('',#993,#240);
#165=LINE('',#995,#241);
#166=LINE('',#996,#242);
#167=LINE('',#999,#243);
#168=LINE('',#1001,#244);
#169=LINE('',#1002,#245);
#170=LINE('',#1005,#246);
#171=LINE('',#1007,#247);
#172=LINE('',#1008,#248);
#173=LINE('',#1011,#249);
#174=LINE('',#1013,#250);
#175=LINE('',#1014,#251);
#176=LINE('',#1017,#252);
#177=LINE('',#1019,#253);
#178=LINE('',#1020,#254);
#179=LINE('',#1023,#255);
#180=LINE('',#1025,#256);
#181=LINE('',#1026,#257);
#182=LINE('',#1029,#258);
#183=LINE('',#1031,#259);
#184=LINE('',#1032,#260);
#185=LINE('',#1035,#261);
#186=LINE('',#1037,#262);
#187=LINE('',#1038,#263);
#188=LINE('',#1041,#264);
#189=LINE('',#1043,#265);
#190=LINE('',#1044,#266);
#191=LINE('',#1047,#267);
#192=LINE('',#1049,#268);
#193=LINE('',#1050,#269);
#194=LINE('',#1053,#270);
#195=LINE('',#1055,#271);
#196=LINE('',#1056,#272);
#197=LINE('',#1059,#273);
#198=LINE('',#1061,#274);
#199=LINE('',#1062,#275);
#200=LINE('',#1065,#276);
#201=LINE('',#1067,#277);
#202=LINE('',#1068,#278);
#203=LINE('',#1071,#279);
#204=LINE('',#1073,#280);
#205=LINE('',#1074,#281);
#206=LINE('',#1076,#282);
#207=LINE('',#1077,#283);
#208=VECTOR('',#733,1.05);
#209=VECTOR('',#740,1.05);
#210=VECTOR('',#747,1.05);
#211=VECTOR('',#754,1.05);
#212=VECTOR('',#759,10.);
#213=VECTOR('',#760,10.);
#214=VECTOR('',#761,10.);
#215=VECTOR('',#762,10.);
#216=VECTOR('',#765,10.);
#217=VECTOR('',#766,10.);
#218=VECTOR('',#767,10.);
#219=VECTOR('',#770,10.);
#220=VECTOR('',#771,10.);
#221=VECTOR('',#772,10.);
#222=VECTOR('',#775,10.);
#223=VECTOR('',#776,10.);
#224=VECTOR('',#781,1.05);
#225=VECTOR('',#788,1.05);
#226=VECTOR('',#793,10.);
#227=VECTOR('',#794,10.);
#228=VECTOR('',#795,10.);
#229=VECTOR('',#796,10.);
#230=VECTOR('',#799,10.);
#231=VECTOR('',#800,10.);
#232=VECTOR('',#801,10.);
#233=VECTOR('',#804,10.);
#234=VECTOR('',#805,10.);
#235=VECTOR('',#806,10.);
#236=VECTOR('',#813,10.);
#237=VECTOR('',#816,10.);
#238=VECTOR('',#817,10.);
#239=VECTOR('',#818,10.);
#240=VECTOR('',#821,10.);
#241=VECTOR('',#822,10.);
#242=VECTOR('',#823,10.);
#243=VECTOR('',#826,10.);
#244=VECTOR('',#827,10.);
#245=VECTOR('',#828,10.);
#246=VECTOR('',#831,10.);
#247=VECTOR('',#832,10.);
#248=VECTOR('',#833,10.);
#249=VECTOR('',#836,10.);
#250=VECTOR('',#837,10.);
#251=VECTOR('',#838,10.);
#252=VECTOR('',#841,10.);
#253=VECTOR('',#842,10.);
#254=VECTOR('',#843,10.);
#255=VECTOR('',#846,10.);
#256=VECTOR('',#847,10.);
#257=VECTOR('',#848,10.);
#258=VECTOR('',#851,10.);
#259=VECTOR('',#852,10.);
#260=VECTOR('',#853,10.);
#261=VECTOR('',#856,10.);
#262=VECTOR('',#857,10.);
#263=VECTOR('',#858,10.);
#264=VECTOR('',#861,10.);
#265=VECTOR('',#862,10.);
#266=VECTOR('',#863,10.);
#267=VECTOR('',#866,10.);
#268=VECTOR('',#867,10.);
#269=VECTOR('',#868,10.);
#270=VECTOR('',#871,10.);
#271=VECTOR('',#872,10.);
#272=VECTOR('',#873,10.);
#273=VECTOR('',#876,10.);
#274=VECTOR('',#877,10.);
#275=VECTOR('',#878,10.);
#276=VECTOR('',#881,10.);
#277=VECTOR('',#882,10.);
#278=VECTOR('',#883,10.);
#279=VECTOR('',#886,10.);
#280=VECTOR('',#887,10.);
#281=VECTOR('',#888,10.);
#282=VECTOR('',#891,10.);
#283=VECTOR('',#892,10.);
#284=CIRCLE('',#682,1.05);
#285=CIRCLE('',#683,1.05);
#286=CIRCLE('',#685,1.05);
#287=CIRCLE('',#686,1.05);
#288=CIRCLE('',#688,1.05);
#289=CIRCLE('',#689,1.05);
#290=CIRCLE('',#691,1.05);
#291=CIRCLE('',#692,1.05);
#292=CIRCLE('',#698,1.05);
#293=CIRCLE('',#699,1.05);
#294=CIRCLE('',#701,1.05);
#295=CIRCLE('',#702,1.05);
#296=CIRCLE('',#707,6.25);
#297=CIRCLE('',#708,6.25);
#298=VERTEX_POINT('',#899);
#299=VERTEX_POINT('',#901);
#300=VERTEX_POINT('',#905);
#301=VERTEX_POINT('',#907);
#302=VERTEX_POINT('',#911);
#303=VERTEX_POINT('',#913);
#304=VERTEX_POINT('',#917);
#305=VERTEX_POINT('',#919);
#306=VERTEX_POINT('',#923);
#307=VERTEX_POINT('',#924);
#308=VERTEX_POINT('',#926);
#309=VERTEX_POINT('',#928);
#310=VERTEX_POINT('',#932);
#311=VERTEX_POINT('',#934);
#312=VERTEX_POINT('',#938);
#313=VERTEX_POINT('',#940);
#314=VERTEX_POINT('',#947);
#315=VERTEX_POINT('',#949);
#316=VERTEX_POINT('',#953);
#317=VERTEX_POINT('',#955);
#318=VERTEX_POINT('',#959);
#319=VERTEX_POINT('',#960);
#320=VERTEX_POINT('',#962);
#321=VERTEX_POINT('',#964);
#322=VERTEX_POINT('',#968);
#323=VERTEX_POINT('',#970);
#324=VERTEX_POINT('',#974);
#325=VERTEX_POINT('',#976);
#326=VERTEX_POINT('',#980);
#327=VERTEX_POINT('',#982);
#328=VERTEX_POINT('',#986);
#329=VERTEX_POINT('',#988);
#330=VERTEX_POINT('',#992);
#331=VERTEX_POINT('',#994);
#332=VERTEX_POINT('',#998);
#333=VERTEX_POINT('',#1000);
#334=VERTEX_POINT('',#1004);
#335=VERTEX_POINT('',#1006);
#336=VERTEX_POINT('',#1010);
#337=VERTEX_POINT('',#1012);
#338=VERTEX_POINT('',#1016);
#339=VERTEX_POINT('',#1018);
#340=VERTEX_POINT('',#1022);
#341=VERTEX_POINT('',#1024);
#342=VERTEX_POINT('',#1028);
#343=VERTEX_POINT('',#1030);
#344=VERTEX_POINT('',#1034);
#345=VERTEX_POINT('',#1036);
#346=VERTEX_POINT('',#1040);
#347=VERTEX_POINT('',#1042);
#348=VERTEX_POINT('',#1046);
#349=VERTEX_POINT('',#1048);
#350=VERTEX_POINT('',#1052);
#351=VERTEX_POINT('',#1054);
#352=VERTEX_POINT('',#1058);
#353=VERTEX_POINT('',#1060);
#354=VERTEX_POINT('',#1064);
#355=VERTEX_POINT('',#1066);
#356=VERTEX_POINT('',#1070);
#357=VERTEX_POINT('',#1072);
#358=EDGE_CURVE('',#298,#298,#284,.T.);
#359=EDGE_CURVE('',#298,#299,#132,.T.);
#360=EDGE_CURVE('',#299,#299,#285,.T.);
#361=EDGE_CURVE('',#300,#300,#286,.T.);
#362=EDGE_CURVE('',#300,#301,#133,.T.);
#363=EDGE_CURVE('',#301,#301,#287,.T.);
#364=EDGE_CURVE('',#302,#302,#288,.T.);
#365=EDGE_CURVE('',#302,#303,#134,.T.);
#366=EDGE_CURVE('',#303,#303,#289,.T.);
#367=EDGE_CURVE('',#304,#304,#290,.T.);
#368=EDGE_CURVE('',#304,#305,#135,.T.);
#369=EDGE_CURVE('',#305,#305,#291,.T.);
#370=EDGE_CURVE('',#306,#307,#136,.T.);
#371=EDGE_CURVE('',#307,#308,#137,.T.);
#372=EDGE_CURVE('',#309,#308,#138,.T.);
#373=EDGE_CURVE('',#306,#309,#139,.T.);
#374=EDGE_CURVE('',#310,#306,#140,.T.);
#375=EDGE_CURVE('',#311,#309,#141,.T.);
#376=EDGE_CURVE('',#310,#311,#142,.T.);
#377=EDGE_CURVE('',#312,#310,#143,.T.);
#378=EDGE_CURVE('',#313,#311,#144,.T.);
#379=EDGE_CURVE('',#312,#313,#145,.T.);
#380=EDGE_CURVE('',#307,#312,#146,.T.);
#381=EDGE_CURVE('',#308,#313,#147,.T.);
#382=EDGE_CURVE('',#314,#314,#292,.T.);
#383=EDGE_CURVE('',#314,#315,#148,.T.);
#384=EDGE_CURVE('',#315,#315,#293,.T.);
#385=EDGE_CURVE('',#316,#316,#294,.T.);
#386=EDGE_CURVE('',#316,#317,#149,.T.);
#387=EDGE_CURVE('',#317,#317,#295,.T.);
#388=EDGE_CURVE('',#318,#319,#150,.T.);
#389=EDGE_CURVE('',#318,#320,#151,.T.);
#390=EDGE_CURVE('',#321,#320,#152,.T.);
#391=EDGE_CURVE('',#319,#321,#153,.T.);
#392=EDGE_CURVE('',#319,#322,#154,.T.);
#393=EDGE_CURVE('',#323,#321,#155,.T.);
#394=EDGE_CURVE('',#322,#323,#156,.T.);
#395=EDGE_CURVE('',#324,#322,#157,.T.);
#396=EDGE_CURVE('',#325,#323,#158,.T.);
#397=EDGE_CURVE('',#324,#325,#159,.T.);
#398=EDGE_CURVE('',#324,#326,#296,.T.);
#399=EDGE_CURVE('',#327,#325,#297,.T.);
#400=EDGE_CURVE('',#326,#327,#160,.T.);
#401=EDGE_CURVE('',#326,#328,#161,.T.);
#402=EDGE_CURVE('',#329,#327,#162,.T.);
#403=EDGE_CURVE('',#328,#329,#163,.T.);
#404=EDGE_CURVE('',#330,#328,#164,.T.);
#405=EDGE_CURVE('',#331,#329,#165,.T.);
#406=EDGE_CURVE('',#330,#331,#166,.T.);
#407=EDGE_CURVE('',#332,#330,#167,.T.);
#408=EDGE_CURVE('',#333,#331,#168,.T.);
#409=EDGE_CURVE('',#332,#333,#169,.T.);
#410=EDGE_CURVE('',#332,#334,#170,.T.);
#411=EDGE_CURVE('',#335,#333,#171,.T.);
#412=EDGE_CURVE('',#334,#335,#172,.T.);
#413=EDGE_CURVE('',#334,#336,#173,.T.);
#414=EDGE_CURVE('',#337,#335,#174,.T.);
#415=EDGE_CURVE('',#336,#337,#175,.T.);
#416=EDGE_CURVE('',#338,#336,#176,.T.);
#417=EDGE_CURVE('',#339,#337,#177,.T.);
#418=EDGE_CURVE('',#338,#339,#178,.T.);
#419=EDGE_CURVE('',#340,#338,#179,.T.);
#420=EDGE_CURVE('',#341,#339,#180,.T.);
#421=EDGE_CURVE('',#340,#341,#181,.T.);
#422=EDGE_CURVE('',#342,#340,#182,.T.);
#423=EDGE_CURVE('',#343,#341,#183,.T.);
#424=EDGE_CURVE('',#342,#343,#184,.T.);
#425=EDGE_CURVE('',#342,#344,#185,.T.);
#426=EDGE_CURVE('',#345,#343,#186,.T.);
#427=EDGE_CURVE('',#344,#345,#187,.T.);
#428=EDGE_CURVE('',#346,#344,#188,.T.);
#429=EDGE_CURVE('',#347,#345,#189,.T.);
#430=EDGE_CURVE('',#346,#347,#190,.T.);
#431=EDGE_CURVE('',#348,#346,#191,.T.);
#432=EDGE_CURVE('',#349,#347,#192,.T.);
#433=EDGE_CURVE('',#348,#349,#193,.T.);
#434=EDGE_CURVE('',#348,#350,#194,.T.);
#435=EDGE_CURVE('',#351,#349,#195,.T.);
#436=EDGE_CURVE('',#350,#351,#196,.T.);
#437=EDGE_CURVE('',#350,#352,#197,.T.);
#438=EDGE_CURVE('',#353,#351,#198,.T.);
#439=EDGE_CURVE('',#352,#353,#199,.T.);
#440=EDGE_CURVE('',#352,#354,#200,.T.);
#441=EDGE_CURVE('',#355,#353,#201,.T.);
#442=EDGE_CURVE('',#354,#355,#202,.T.);
#443=EDGE_CURVE('',#356,#354,#203,.T.);
#444=EDGE_CURVE('',#357,#355,#204,.T.);
#445=EDGE_CURVE('',#356,#357,#205,.T.);
#446=EDGE_CURVE('',#318,#356,#206,.T.);
#447=EDGE_CURVE('',#320,#357,#207,.T.);
#448=ORIENTED_EDGE('',*,*,#358,.F.);
#449=ORIENTED_EDGE('',*,*,#359,.T.);
#450=ORIENTED_EDGE('',*,*,#360,.T.);
#451=ORIENTED_EDGE('',*,*,#359,.F.);
#452=ORIENTED_EDGE('',*,*,#361,.F.);
#453=ORIENTED_EDGE('',*,*,#362,.T.);
#454=ORIENTED_EDGE('',*,*,#363,.T.);
#455=ORIENTED_EDGE('',*,*,#362,.F.);
#456=ORIENTED_EDGE('',*,*,#364,.F.);
#457=ORIENTED_EDGE('',*,*,#365,.T.);
#458=ORIENTED_EDGE('',*,*,#366,.T.);
#459=ORIENTED_EDGE('',*,*,#365,.F.);
#460=ORIENTED_EDGE('',*,*,#367,.F.);
#461=ORIENTED_EDGE('',*,*,#368,.T.);
#462=ORIENTED_EDGE('',*,*,#369,.T.);
#463=ORIENTED_EDGE('',*,*,#368,.F.);
#464=ORIENTED_EDGE('',*,*,#370,.T.);
#465=ORIENTED_EDGE('',*,*,#371,.T.);
#466=ORIENTED_EDGE('',*,*,#372,.F.);
#467=ORIENTED_EDGE('',*,*,#373,.F.);
#468=ORIENTED_EDGE('',*,*,#374,.T.);
#469=ORIENTED_EDGE('',*,*,#373,.T.);
#470=ORIENTED_EDGE('',*,*,#375,.F.);
#471=ORIENTED_EDGE('',*,*,#376,.F.);
#472=ORIENTED_EDGE('',*,*,#377,.T.);
#473=ORIENTED_EDGE('',*,*,#376,.T.);
#474=ORIENTED_EDGE('',*,*,#378,.F.);
#475=ORIENTED_EDGE('',*,*,#379,.F.);
#476=ORIENTED_EDGE('',*,*,#380,.T.);
#477=ORIENTED_EDGE('',*,*,#379,.T.);
#478=ORIENTED_EDGE('',*,*,#381,.F.);
#479=ORIENTED_EDGE('',*,*,#371,.F.);
#480=ORIENTED_EDGE('',*,*,#382,.F.);
#481=ORIENTED_EDGE('',*,*,#383,.T.);
#482=ORIENTED_EDGE('',*,*,#384,.T.);
#483=ORIENTED_EDGE('',*,*,#383,.F.);
#484=ORIENTED_EDGE('',*,*,#385,.F.);
#485=ORIENTED_EDGE('',*,*,#386,.T.);
#486=ORIENTED_EDGE('',*,*,#387,.T.);
#487=ORIENTED_EDGE('',*,*,#386,.F.);
#488=ORIENTED_EDGE('',*,*,#388,.F.);
#489=ORIENTED_EDGE('',*,*,#389,.T.);
#490=ORIENTED_EDGE('',*,*,#390,.F.);
#491=ORIENTED_EDGE('',*,*,#391,.F.);
#492=ORIENTED_EDGE('',*,*,#392,.F.);
#493=ORIENTED_EDGE('',*,*,#391,.T.);
#494=ORIENTED_EDGE('',*,*,#393,.F.);
#495=ORIENTED_EDGE('',*,*,#394,.F.);
#496=ORIENTED_EDGE('',*,*,#395,.T.);
#497=ORIENTED_EDGE('',*,*,#394,.T.);
#498=ORIENTED_EDGE('',*,*,#396,.F.);
#499=ORIENTED_EDGE('',*,*,#397,.F.);
#500=ORIENTED_EDGE('',*,*,#398,.F.);
#501=ORIENTED_EDGE('',*,*,#397,.T.);
#502=ORIENTED_EDGE('',*,*,#399,.F.);
#503=ORIENTED_EDGE('',*,*,#400,.F.);
#504=ORIENTED_EDGE('',*,*,#401,.F.);
#505=ORIENTED_EDGE('',*,*,#400,.T.);
#506=ORIENTED_EDGE('',*,*,#402,.F.);
#507=ORIENTED_EDGE('',*,*,#403,.F.);
#508=ORIENTED_EDGE('',*,*,#404,.T.);
#509=ORIENTED_EDGE('',*,*,#403,.T.);
#510=ORIENTED_EDGE('',*,*,#405,.F.);
#511=ORIENTED_EDGE('',*,*,#406,.F.);
#512=ORIENTED_EDGE('',*,*,#407,.T.);
#513=ORIENTED_EDGE('',*,*,#406,.T.);
#514=ORIENTED_EDGE('',*,*,#408,.F.);
#515=ORIENTED_EDGE('',*,*,#409,.F.);
#516=ORIENTED_EDGE('',*,*,#410,.F.);
#517=ORIENTED_EDGE('',*,*,#409,.T.);
#518=ORIENTED_EDGE('',*,*,#411,.F.);
#519=ORIENTED_EDGE('',*,*,#412,.F.);
#520=ORIENTED_EDGE('',*,*,#413,.F.);
#521=ORIENTED_EDGE('',*,*,#412,.T.);
#522=ORIENTED_EDGE('',*,*,#414,.F.);
#523=ORIENTED_EDGE('',*,*,#415,.F.);
#524=ORIENTED_EDGE('',*,*,#416,.T.);
#525=ORIENTED_EDGE('',*,*,#415,.T.);
#526=ORIENTED_EDGE('',*,*,#417,.F.);
#527=ORIENTED_EDGE('',*,*,#418,.F.);
#528=ORIENTED_EDGE('',*,*,#419,.T.);
#529=ORIENTED_EDGE('',*,*,#418,.T.);
#530=ORIENTED_EDGE('',*,*,#420,.F.);
#531=ORIENTED_EDGE('',*,*,#421,.F.);
#532=ORIENTED_EDGE('',*,*,#422,.T.);
#533=ORIENTED_EDGE('',*,*,#421,.T.);
#534=ORIENTED_EDGE('',*,*,#423,.F.);
#535=ORIENTED_EDGE('',*,*,#424,.F.);
#536=ORIENTED_EDGE('',*,*,#425,.F.);
#537=ORIENTED_EDGE('',*,*,#424,.T.);
#538=ORIENTED_EDGE('',*,*,#426,.F.);
#539=ORIENTED_EDGE('',*,*,#427,.F.);
#540=ORIENTED_EDGE('',*,*,#428,.T.);
#541=ORIENTED_EDGE('',*,*,#427,.T.);
#542=ORIENTED_EDGE('',*,*,#429,.F.);
#543=ORIENTED_EDGE('',*,*,#430,.F.);
#544=ORIENTED_EDGE('',*,*,#431,.T.);
#545=ORIENTED_EDGE('',*,*,#430,.T.);
#546=ORIENTED_EDGE('',*,*,#432,.F.);
#547=ORIENTED_EDGE('',*,*,#433,.F.);
#548=ORIENTED_EDGE('',*,*,#434,.F.);
#549=ORIENTED_EDGE('',*,*,#433,.T.);
#550=ORIENTED_EDGE('',*,*,#435,.F.);
#551=ORIENTED_EDGE('',*,*,#436,.F.);
#552=ORIENTED_EDGE('',*,*,#437,.F.);
#553=ORIENTED_EDGE('',*,*,#436,.T.);
#554=ORIENTED_EDGE('',*,*,#438,.F.);
#555=ORIENTED_EDGE('',*,*,#439,.F.);
#556=ORIENTED_EDGE('',*,*,#440,.F.);
#557=ORIENTED_EDGE('',*,*,#439,.T.);
#558=ORIENTED_EDGE('',*,*,#441,.F.);
#559=ORIENTED_EDGE('',*,*,#442,.F.);
#560=ORIENTED_EDGE('',*,*,#443,.T.);
#561=ORIENTED_EDGE('',*,*,#442,.T.);
#562=ORIENTED_EDGE('',*,*,#444,.F.);
#563=ORIENTED_EDGE('',*,*,#445,.F.);
#564=ORIENTED_EDGE('',*,*,#446,.T.);
#565=ORIENTED_EDGE('',*,*,#445,.T.);
#566=ORIENTED_EDGE('',*,*,#447,.F.);
#567=ORIENTED_EDGE('',*,*,#389,.F.);
#568=ORIENTED_EDGE('',*,*,#447,.T.);
#569=ORIENTED_EDGE('',*,*,#444,.T.);
#570=ORIENTED_EDGE('',*,*,#441,.T.);
#571=ORIENTED_EDGE('',*,*,#438,.T.);
#572=ORIENTED_EDGE('',*,*,#435,.T.);
#573=ORIENTED_EDGE('',*,*,#432,.T.);
#574=ORIENTED_EDGE('',*,*,#429,.T.);
#575=ORIENTED_EDGE('',*,*,#426,.T.);
#576=ORIENTED_EDGE('',*,*,#423,.T.);
#577=ORIENTED_EDGE('',*,*,#420,.T.);
#578=ORIENTED_EDGE('',*,*,#417,.T.);
#579=ORIENTED_EDGE('',*,*,#414,.T.);
#580=ORIENTED_EDGE('',*,*,#411,.T.);
#581=ORIENTED_EDGE('',*,*,#408,.T.);
#582=ORIENTED_EDGE('',*,*,#405,.T.);
#583=ORIENTED_EDGE('',*,*,#402,.T.);
#584=ORIENTED_EDGE('',*,*,#399,.T.);
#585=ORIENTED_EDGE('',*,*,#396,.T.);
#586=ORIENTED_EDGE('',*,*,#393,.T.);
#587=ORIENTED_EDGE('',*,*,#390,.T.);
#588=ORIENTED_EDGE('',*,*,#385,.T.);
#589=ORIENTED_EDGE('',*,*,#382,.T.);
#590=ORIENTED_EDGE('',*,*,#381,.T.);
#591=ORIENTED_EDGE('',*,*,#378,.T.);
#592=ORIENTED_EDGE('',*,*,#375,.T.);
#593=ORIENTED_EDGE('',*,*,#372,.T.);
#594=ORIENTED_EDGE('',*,*,#367,.T.);
#595=ORIENTED_EDGE('',*,*,#364,.T.);
#596=ORIENTED_EDGE('',*,*,#361,.T.);
#597=ORIENTED_EDGE('',*,*,#358,.T.);
#598=ORIENTED_EDGE('',*,*,#446,.F.);
#599=ORIENTED_EDGE('',*,*,#388,.T.);
#600=ORIENTED_EDGE('',*,*,#392,.T.);
#601=ORIENTED_EDGE('',*,*,#395,.F.);
#602=ORIENTED_EDGE('',*,*,#398,.T.);
#603=ORIENTED_EDGE('',*,*,#401,.T.);
#604=ORIENTED_EDGE('',*,*,#404,.F.);
#605=ORIENTED_EDGE('',*,*,#407,.F.);
#606=ORIENTED_EDGE('',*,*,#410,.T.);
#607=ORIENTED_EDGE('',*,*,#413,.T.);
#608=ORIENTED_EDGE('',*,*,#416,.F.);
#609=ORIENTED_EDGE('',*,*,#419,.F.);
#610=ORIENTED_EDGE('',*,*,#422,.F.);
#611=ORIENTED_EDGE('',*,*,#425,.T.);
#612=ORIENTED_EDGE('',*,*,#428,.F.);
#613=ORIENTED_EDGE('',*,*,#431,.F.);
#614=ORIENTED_EDGE('',*,*,#434,.T.);
#615=ORIENTED_EDGE('',*,*,#437,.T.);
#616=ORIENTED_EDGE('',*,*,#440,.T.);
#617=ORIENTED_EDGE('',*,*,#443,.F.);
#618=ORIENTED_EDGE('',*,*,#387,.F.);
#619=ORIENTED_EDGE('',*,*,#384,.F.);
#620=ORIENTED_EDGE('',*,*,#380,.F.);
#621=ORIENTED_EDGE('',*,*,#370,.F.);
#622=ORIENTED_EDGE('',*,*,#374,.F.);
#623=ORIENTED_EDGE('',*,*,#377,.F.);
#624=ORIENTED_EDGE('',*,*,#369,.F.);
#625=ORIENTED_EDGE('',*,*,#366,.F.);
#626=ORIENTED_EDGE('',*,*,#363,.F.);
#627=ORIENTED_EDGE('',*,*,#360,.F.);
#628=CYLINDRICAL_SURFACE('',#681,1.05);
#629=CYLINDRICAL_SURFACE('',#684,1.05);
#630=CYLINDRICAL_SURFACE('',#687,1.05);
#631=CYLINDRICAL_SURFACE('',#690,1.05);
#632=CYLINDRICAL_SURFACE('',#697,1.05);
#633=CYLINDRICAL_SURFACE('',#700,1.05);
#634=CYLINDRICAL_SURFACE('',#706,6.25);
#635=ADVANCED_FACE('',(#54),#628,.F.);
#636=ADVANCED_FACE('',(#55),#629,.F.);
#637=ADVANCED_FACE('',(#56),#630,.F.);
#638=ADVANCED_FACE('',(#57),#631,.F.);
#639=ADVANCED_FACE('',(#58),#29,.T.);
#640=ADVANCED_FACE('',(#59),#30,.T.);
#641=ADVANCED_FACE('',(#60),#31,.T.);
#642=ADVANCED_FACE('',(#61),#32,.T.);
#643=ADVANCED_FACE('',(#62),#632,.F.);
#644=ADVANCED_FACE('',(#63),#633,.F.);
#645=ADVANCED_FACE('',(#64),#33,.T.);
#646=ADVANCED_FACE('',(#65),#34,.T.);
#647=ADVANCED_FACE('',(#66),#35,.T.);
#648=ADVANCED_FACE('',(#67),#634,.F.);
#649=ADVANCED_FACE('',(#68),#36,.T.);
#650=ADVANCED_FACE('',(#69),#37,.T.);
#651=ADVANCED_FACE('',(#70),#38,.T.);
#652=ADVANCED_FACE('',(#71),#39,.T.);
#653=ADVANCED_FACE('',(#72),#40,.T.);
#654=ADVANCED_FACE('',(#73),#41,.T.);
#655=ADVANCED_FACE('',(#74),#42,.T.);
#656=ADVANCED_FACE('',(#75),#43,.T.);
#657=ADVANCED_FACE('',(#76),#44,.T.);
#658=ADVANCED_FACE('',(#77),#45,.T.);
#659=ADVANCED_FACE('',(#78),#46,.T.);
#660=ADVANCED_FACE('',(#79),#47,.T.);
#661=ADVANCED_FACE('',(#80),#48,.T.);
#662=ADVANCED_FACE('',(#81),#49,.T.);
#663=ADVANCED_FACE('',(#82),#50,.T.);
#664=ADVANCED_FACE('',(#83),#51,.T.);
#665=ADVANCED_FACE('',(#84,#15,#16,#17,#18,#19,#20,#21),#52,.T.);
#666=ADVANCED_FACE('',(#85,#22,#23,#24,#25,#26,#27,#28),#53,.F.);
#667=CLOSED_SHELL('',(#635,#636,#637,#638,#639,#640,#641,#642,#643,#644,
#645,#646,#647,#648,#649,#650,#651,#652,#653,#654,#655,#656,#657,#658,#659,
#660,#661,#662,#663,#664,#665,#666));
#668=DERIVED_UNIT_ELEMENT(#670,1.);
#669=DERIVED_UNIT_ELEMENT(#1085,-3.);
#670=(
MASS_UNIT()
NAMED_UNIT(*)
SI_UNIT(.KILO.,.GRAM.)
);
#671=DERIVED_UNIT((#668,#669));
#672=MEASURE_REPRESENTATION_ITEM('density measure',
POSITIVE_RATIO_MEASURE(7850.),#671);
#673=PROPERTY_DEFINITION_REPRESENTATION(#678,#675);
#674=PROPERTY_DEFINITION_REPRESENTATION(#679,#676);
#675=REPRESENTATION('material name',(#677),#1082);
#676=REPRESENTATION('density',(#672),#1082);
#677=DESCRIPTIVE_REPRESENTATION_ITEM('Steel','Steel');
#678=PROPERTY_DEFINITION('material property','material name',#1092);
#679=PROPERTY_DEFINITION('material property','density of part',#1092);
#680=AXIS2_PLACEMENT_3D('placement',#897,#727,#728);
#681=AXIS2_PLACEMENT_3D('',#898,#729,#730);
#682=AXIS2_PLACEMENT_3D('',#900,#731,#732);
#683=AXIS2_PLACEMENT_3D('',#903,#734,#735);
#684=AXIS2_PLACEMENT_3D('',#904,#736,#737);
#685=AXIS2_PLACEMENT_3D('',#906,#738,#739);
#686=AXIS2_PLACEMENT_3D('',#909,#741,#742);
#687=AXIS2_PLACEMENT_3D('',#910,#743,#744);
#688=AXIS2_PLACEMENT_3D('',#912,#745,#746);
#689=AXIS2_PLACEMENT_3D('',#915,#748,#749);
#690=AXIS2_PLACEMENT_3D('',#916,#750,#751);
#691=AXIS2_PLACEMENT_3D('',#918,#752,#753);
#692=AXIS2_PLACEMENT_3D('',#921,#755,#756);
#693=AXIS2_PLACEMENT_3D('',#922,#757,#758);
#694=AXIS2_PLACEMENT_3D('',#931,#763,#764);
#695=AXIS2_PLACEMENT_3D('',#937,#768,#769);
#696=AXIS2_PLACEMENT_3D('',#943,#773,#774);
#697=AXIS2_PLACEMENT_3D('',#946,#777,#778);
#698=AXIS2_PLACEMENT_3D('',#948,#779,#780);
#699=AXIS2_PLACEMENT_3D('',#951,#782,#783);
#700=AXIS2_PLACEMENT_3D('',#952,#784,#785);
#701=AXIS2_PLACEMENT_3D('',#954,#786,#787);
#702=AXIS2_PLACEMENT_3D('',#957,#789,#790);
#703=AXIS2_PLACEMENT_3D('',#958,#791,#792);
#704=AXIS2_PLACEMENT_3D('',#967,#797,#798);
#705=AXIS2_PLACEMENT_3D('',#973,#802,#803);
#706=AXIS2_PLACEMENT_3D('',#979,#807,#808);
#707=AXIS2_PLACEMENT_3D('',#981,#809,#810);
#708=AXIS2_PLACEMENT_3D('',#983,#811,#812);
#709=AXIS2_PLACEMENT_3D('',#985,#814,#815);
#710=AXIS2_PLACEMENT_3D('',#991,#819,#820);
#711=AXIS2_PLACEMENT_3D('',#997,#824,#825);
#712=AXIS2_PLACEMENT_3D('',#1003,#829,#830);
#713=AXIS2_PLACEMENT_3D('',#1009,#834,#835);
#714=AXIS2_PLACEMENT_3D('',#1015,#839,#840);
#715=AXIS2_PLACEMENT_3D('',#1021,#844,#845);
#716=AXIS2_PLACEMENT_3D('',#1027,#849,#850);
#717=AXIS2_PLACEMENT_3D('',#1033,#854,#855);
#718=AXIS2_PLACEMENT_3D('',#1039,#859,#860);
#719=AXIS2_PLACEMENT_3D('',#1045,#864,#865);
#720=AXIS2_PLACEMENT_3D('',#1051,#869,#870);
#721=AXIS2_PLACEMENT_3D('',#1057,#874,#875);
#722=AXIS2_PLACEMENT_3D('',#1063,#879,#880);
#723=AXIS2_PLACEMENT_3D('',#1069,#884,#885);
#724=AXIS2_PLACEMENT_3D('',#1075,#889,#890);
#725=AXIS2_PLACEMENT_3D('',#1078,#893,#894);
#726=AXIS2_PLACEMENT_3D('',#1079,#895,#896);
#727=DIRECTION('axis',(0.,0.,1.));
#728=DIRECTION('refdir',(1.,0.,0.));
#729=DIRECTION('center_axis',(0.,0.,1.));
#730=DIRECTION('ref_axis',(1.,0.,0.));
#731=DIRECTION('center_axis',(0.,0.,-1.));
#732=DIRECTION('ref_axis',(1.,0.,0.));
#733=DIRECTION('',(0.,0.,-1.));
#734=DIRECTION('center_axis',(0.,0.,-1.));
#735=DIRECTION('ref_axis',(1.,0.,0.));
#736=DIRECTION('center_axis',(0.,0.,1.));
#737=DIRECTION('ref_axis',(1.,0.,0.));
#738=DIRECTION('center_axis',(0.,0.,-1.));
#739=DIRECTION('ref_axis',(1.,0.,0.));
#740=DIRECTION('',(0.,0.,-1.));
#741=DIRECTION('center_axis',(0.,0.,-1.));
#742=DIRECTION('ref_axis',(1.,0.,0.));
#743=DIRECTION('center_axis',(0.,0.,1.));
#744=DIRECTION('ref_axis',(1.,0.,0.));
#745=DIRECTION('center_axis',(0.,0.,-1.));
#746=DIRECTION('ref_axis',(1.,0.,0.));
#747=DIRECTION('',(0.,0.,-1.));
#748=DIRECTION('center_axis',(0.,0.,-1.));
#749=DIRECTION('ref_axis',(1.,0.,0.));
#750=DIRECTION('center_axis',(0.,0.,1.));
#751=DIRECTION('ref_axis',(1.,0.,0.));
#752=DIRECTION('center_axis',(0.,0.,-1.));
#753=DIRECTION('ref_axis',(1.,0.,0.));
#754=DIRECTION('',(0.,0.,-1.));
#755=DIRECTION('center_axis',(0.,0.,-1.));
#756=DIRECTION('ref_axis',(1.,0.,0.));
#757=DIRECTION('center_axis',(-1.,-1.87520341774787E-16,0.));
#758=DIRECTION('ref_axis',(1.87520341774787E-16,-1.,0.));
#759=DIRECTION('',(1.87520341774787E-16,-1.,0.));
#760=DIRECTION('',(0.,0.,1.));
#761=DIRECTION('',(1.87520341774787E-16,-1.,0.));
#762=DIRECTION('',(0.,0.,1.));
#763=DIRECTION('center_axis',(1.77635683940025E-16,-1.,0.));
#764=DIRECTION('ref_axis',(1.,1.77635683940025E-16,0.));
#765=DIRECTION('',(1.,1.77635683940025E-16,0.));
#766=DIRECTION('',(1.,1.77635683940025E-16,0.));
#767=DIRECTION('',(0.,0.,1.));
#768=DIRECTION('center_axis',(1.,-9.37601708873937E-17,0.));
#769=DIRECTION('ref_axis',(9.37601708873937E-17,1.,0.));
#770=DIRECTION('',(9.37601708873937E-17,1.,0.));
#771=DIRECTION('',(9.37601708873937E-17,1.,0.));
#772=DIRECTION('',(0.,0.,1.));
#773=DIRECTION('center_axis',(-1.4210854715202E-15,1.,0.));
#774=DIRECTION('ref_axis',(-1.,-1.4210854715202E-15,0.));
#775=DIRECTION('',(-1.,-1.4210854715202E-15,0.));
#776=DIRECTION('',(-1.,-1.4210854715202E-15,0.));
#777=DIRECTION('center_axis',(0.,0.,1.));
#778=DIRECTION('ref_axis',(1.,0.,0.));
#779=DIRECTION('center_axis',(0.,0.,-1.));
#780=DIRECTION('ref_axis',(1.,0.,0.));
#781=DIRECTION('',(0.,0.,-1.));
#782=DIRECTION('center_axis',(0.,0.,-1.));
#783=DIRECTION('ref_axis',(1.,0.,0.));
#784=DIRECTION('center_axis',(0.,0.,1.));
#785=DIRECTION('ref_axis',(1.,0.,0.));
#786=DIRECTION('center_axis',(0.,0.,-1.));
#787=DIRECTION('ref_axis',(1.,0.,0.));
#788=DIRECTION('',(0.,0.,-1.));
#789=DIRECTION('center_axis',(0.,0.,-1.));
#790=DIRECTION('ref_axis',(1.,0.,0.));
#791=DIRECTION('center_axis',(-1.,0.,0.));
#792=DIRECTION('ref_axis',(0.,-1.,0.));
#793=DIRECTION('',(0.,1.,0.));
#794=DIRECTION('',(0.,0.,1.));
#795=DIRECTION('',(0.,-1.,0.));
#796=DIRECTION('',(0.,0.,1.));
#797=DIRECTION('center_axis',(0.,1.,0.));
#798=DIRECTION('ref_axis',(-1.,0.,0.));
#799=DIRECTION('',(1.,0.,0.));
#800=DIRECTION('',(-1.,0.,0.));
#801=DIRECTION('',(0.,0.,1.));
#802=DIRECTION('center_axis',(1.,3.77486375184532E-16,0.));
#803=DIRECTION('ref_axis',(-3.77486375184532E-16,1.,0.));
#804=DIRECTION('',(-3.77486375184532E-16,1.,0.));
#805=DIRECTION('',(-3.77486375184532E-16,1.,0.));
#806=DIRECTION('',(0.,0.,1.));
#807=DIRECTION('center_axis',(0.,0.,1.));
#808=DIRECTION('ref_axis',(-1.,0.,0.));
#809=DIRECTION('center_axis',(0.,0.,1.));
#810=DIRECTION('ref_axis',(-1.,0.,0.));
#811=DIRECTION('center_axis',(0.,0.,-1.));
#812=DIRECTION('ref_axis',(-1.,0.,0.));
#813=DIRECTION('',(0.,0.,1.));
#814=DIRECTION('center_axis',(-1.,0.,0.));
#815=DIRECTION('ref_axis',(0.,-1.,0.));
#816=DIRECTION('',(0.,1.,0.));
#817=DIRECTION('',(0.,-1.,0.));
#818=DIRECTION('',(0.,0.,1.));
#819=DIRECTION('center_axis',(0.,1.,0.));
#820=DIRECTION('ref_axis',(-1.,0.,0.));
#821=DIRECTION('',(-1.,0.,0.));
#822=DIRECTION('',(-1.,0.,0.));
#823=DIRECTION('',(0.,0.,1.));
#824=DIRECTION('center_axis',(1.,0.,0.));
#825=DIRECTION('ref_axis',(0.,1.,0.));
#826=DIRECTION('',(0.,1.,0.));
#827=DIRECTION('',(0.,1.,0.));
#828=DIRECTION('',(0.,0.,1.));
#829=DIRECTION('center_axis',(3.5527136788005E-16,-1.,0.));
#830=DIRECTION('ref_axis',(1.,3.5527136788005E-16,0.));
#831=DIRECTION('',(-1.,-3.5527136788005E-16,0.));
#832=DIRECTION('',(1.,3.5527136788005E-16,0.));
#833=DIRECTION('',(0.,0.,1.));
#834=DIRECTION('center_axis',(1.,0.,0.));
#835=DIRECTION('ref_axis',(0.,1.,0.));
#836=DIRECTION('',(0.,-1.,0.));
#837=DIRECTION('',(0.,1.,0.));
#838=DIRECTION('',(0.,0.,1.));
#839=DIRECTION('center_axis',(3.5527136788005E-16,1.,0.));
#840=DIRECTION('ref_axis',(-1.,3.5527136788005E-16,0.));
#841=DIRECTION('',(-1.,3.5527136788005E-16,0.));
#842=DIRECTION('',(-1.,3.5527136788005E-16,0.));
#843=DIRECTION('',(0.,0.,1.));
#844=DIRECTION('center_axis',(1.,0.,0.));
#845=DIRECTION('ref_axis',(0.,1.,0.));
#846=DIRECTION('',(0.,1.,0.));
#847=DIRECTION('',(0.,1.,0.));
#848=DIRECTION('',(0.,0.,1.));
#849=DIRECTION('center_axis',(0.,-1.,0.));
#850=DIRECTION('ref_axis',(1.,0.,0.));
#851=DIRECTION('',(1.,0.,0.));
#852=DIRECTION('',(1.,0.,0.));
#853=DIRECTION('',(0.,0.,1.));
#854=DIRECTION('center_axis',(1.,0.,0.));
#855=DIRECTION('ref_axis',(0.,1.,0.));
#856=DIRECTION('',(0.,-1.,0.));
#857=DIRECTION('',(0.,1.,0.));
#858=DIRECTION('',(0.,0.,1.));
#859=DIRECTION('center_axis',(0.,-1.,0.));
#860=DIRECTION('ref_axis',(1.,0.,0.));
#861=DIRECTION('',(1.,0.,0.));
#862=DIRECTION('',(1.,0.,0.));
#863=DIRECTION('',(0.,0.,1.));
#864=DIRECTION('center_axis',(-1.,0.,0.));
#865=DIRECTION('ref_axis',(0.,-1.,0.));
#866=DIRECTION('',(0.,-1.,0.));
#867=DIRECTION('',(0.,-1.,0.));
#868=DIRECTION('',(0.,0.,1.));
#869=DIRECTION('center_axis',(0.,-1.,0.));
#870=DIRECTION('ref_axis',(1.,0.,0.));
#871=DIRECTION('',(-1.,0.,0.));
#872=DIRECTION('',(1.,0.,0.));
#873=DIRECTION('',(0.,0.,1.));
#874=DIRECTION('center_axis',(-1.,0.,0.));
#875=DIRECTION('ref_axis',(0.,-1.,0.));
#876=DIRECTION('',(0.,1.,0.));
#877=DIRECTION('',(0.,-1.,0.));
#878=DIRECTION('',(0.,0.,1.));
#879=DIRECTION('center_axis',(-3.5527136788005E-16,1.,0.));
#880=DIRECTION('ref_axis',(-1.,-3.5527136788005E-16,0.));
#881=DIRECTION('',(1.,3.5527136788005E-16,0.));
#882=DIRECTION('',(-1.,-3.5527136788005E-16,0.));
#883=DIRECTION('',(0.,0.,1.));
#884=DIRECTION('center_axis',(-1.,0.,0.));
#885=DIRECTION('ref_axis',(0.,-1.,0.));
#886=DIRECTION('',(0.,-1.,0.));
#887=DIRECTION('',(0.,-1.,0.));
#888=DIRECTION('',(0.,0.,1.));
#889=DIRECTION('center_axis',(-2.66453525910038E-16,-1.,0.));
#890=DIRECTION('ref_axis',(1.,-2.66453525910038E-16,0.));
#891=DIRECTION('',(1.,-2.66453525910038E-16,0.));
#892=DIRECTION('',(1.,-2.66453525910038E-16,0.));
#893=DIRECTION('center_axis',(0.,0.,1.));
#894=DIRECTION('ref_axis',(1.,0.,0.));
#895=DIRECTION('center_axis',(0.,0.,1.));
#896=DIRECTION('ref_axis',(1.,0.,0.));
#897=CARTESIAN_POINT('',(0.,0.,0.));
#898=CARTESIAN_POINT('Origin',(38.05,-30.4,0.));
#899=CARTESIAN_POINT('',(37.,-30.4,6.));
#900=CARTESIAN_POINT('Origin',(38.05,-30.4,6.));
#901=CARTESIAN_POINT('',(37.,-30.4,0.));
#902=CARTESIAN_POINT('',(37.,-30.4,0.));
#903=CARTESIAN_POINT('Origin',(38.05,-30.4,0.));
#904=CARTESIAN_POINT('Origin',(22.15,-14.7321885906872,0.));
#905=CARTESIAN_POINT('',(21.1,-14.7321885906872,6.));
#906=CARTESIAN_POINT('Origin',(22.15,-14.7321885906872,6.));
#907=CARTESIAN_POINT('',(21.1,-14.7321885906872,0.));
#908=CARTESIAN_POINT('',(21.1,-14.7321885906872,0.));
#909=CARTESIAN_POINT('Origin',(22.15,-14.7321885906872,0.));
#910=CARTESIAN_POINT('Origin',(22.15,-42.5321885906872,0.));
#911=CARTESIAN_POINT('',(21.1,-42.5321885906872,6.));
#912=CARTESIAN_POINT('Origin',(22.15,-42.5321885906872,6.));
#913=CARTESIAN_POINT('',(21.1,-42.5321885906872,0.));
#914=CARTESIAN_POINT('',(21.1,-42.5321885906872,0.));
#915=CARTESIAN_POINT('Origin',(22.15,-42.5321885906872,0.));
#916=CARTESIAN_POINT('Origin',(6.25,-2.6,0.));
#917=CARTESIAN_POINT('',(5.2,-2.6,6.));
#918=CARTESIAN_POINT('Origin',(6.25,-2.6,6.));
#919=CARTESIAN_POINT('',(5.2,-2.6,0.));
#920=CARTESIAN_POINT('',(5.2,-2.6,0.));
#921=CARTESIAN_POINT('Origin',(6.25,-2.6,0.));
#922=CARTESIAN_POINT('Origin',(28.4,-17.0821885906872,0.));
#923=CARTESIAN_POINT('',(28.4,-17.0821885906872,0.));
#924=CARTESIAN_POINT('',(28.4,-40.1821885906872,0.));
#925=CARTESIAN_POINT('',(28.4,-40.1821885906872,0.));
#926=CARTESIAN_POINT('',(28.4,-40.1821885906872,6.));
#927=CARTESIAN_POINT('',(28.4,-40.1821885906872,0.));
#928=CARTESIAN_POINT('',(28.4,-17.0821885906872,6.));
#929=CARTESIAN_POINT('',(28.4,-40.1821885906872,6.));
#930=CARTESIAN_POINT('',(28.4,-17.0821885906872,0.));
#931=CARTESIAN_POINT('Origin',(15.9,-17.0821885906872,0.));
#932=CARTESIAN_POINT('',(15.9,-17.0821885906872,0.));
#933=CARTESIAN_POINT('',(15.9,-17.0821885906872,0.));
#934=CARTESIAN_POINT('',(15.9,-17.0821885906872,6.));
#935=CARTESIAN_POINT('',(15.9,-17.0821885906872,6.));
#936=CARTESIAN_POINT('',(15.9,-17.0821885906872,0.));
#937=CARTESIAN_POINT('Origin',(15.9,-40.1821885906872,0.));
#938=CARTESIAN_POINT('',(15.9,-40.1821885906872,0.));
#939=CARTESIAN_POINT('',(15.9,-40.1821885906872,0.));
#940=CARTESIAN_POINT('',(15.9,-40.1821885906872,6.));
#941=CARTESIAN_POINT('',(15.9,-40.1821885906872,6.));
#942=CARTESIAN_POINT('',(15.9,-40.1821885906872,0.));
#943=CARTESIAN_POINT('Origin',(28.4,-40.1821885906871,0.));
#944=CARTESIAN_POINT('',(15.9,-40.1821885906872,0.));
#945=CARTESIAN_POINT('',(15.9,-40.1821885906872,6.));
#946=CARTESIAN_POINT('Origin',(6.25,-30.4,0.));
#947=CARTESIAN_POINT('',(5.2,-30.4,6.));
#948=CARTESIAN_POINT('Origin',(6.25,-30.4,6.));
#949=CARTESIAN_POINT('',(5.2,-30.4,0.));
#950=CARTESIAN_POINT('',(5.2,-30.4,0.));
#951=CARTESIAN_POINT('Origin',(6.25,-30.4,0.));
#952=CARTESIAN_POINT('Origin',(38.05,-2.6,0.));
#953=CARTESIAN_POINT('',(37.,-2.6,6.));
#954=CARTESIAN_POINT('Origin',(38.05,-2.6,6.));
#955=CARTESIAN_POINT('',(37.,-2.6,0.));
#956=CARTESIAN_POINT('',(37.,-2.6,0.));
#957=CARTESIAN_POINT('Origin',(38.05,-2.6,0.));
#958=CARTESIAN_POINT('Origin',(0.,0.,0.));
#959=CARTESIAN_POINT('',(0.,-4.95,0.));
#960=CARTESIAN_POINT('',(0.,0.,0.));
#961=CARTESIAN_POINT('',(0.,-4.95,0.));
#962=CARTESIAN_POINT('',(0.,-4.95,6.));
#963=CARTESIAN_POINT('',(0.,-4.95,0.));
#964=CARTESIAN_POINT('',(0.,0.,6.));
#965=CARTESIAN_POINT('',(0.,-4.95,6.));
#966=CARTESIAN_POINT('',(0.,0.,0.));
#967=CARTESIAN_POINT('Origin',(15.9,0.,0.));
#968=CARTESIAN_POINT('',(15.9,0.,0.));
#969=CARTESIAN_POINT('',(0.,0.,0.));
#970=CARTESIAN_POINT('',(15.9,0.,6.));
#971=CARTESIAN_POINT('',(0.,0.,6.));
#972=CARTESIAN_POINT('',(15.9,0.,0.));
#973=CARTESIAN_POINT('Origin',(15.9,-5.88218859068718,0.));
#974=CARTESIAN_POINT('',(15.9,-5.88218859068718,0.));
#975=CARTESIAN_POINT('',(15.9,-5.88218859068718,0.));
#976=CARTESIAN_POINT('',(15.9,-5.88218859068718,6.));
#977=CARTESIAN_POINT('',(15.9,-5.88218859068718,6.));
#978=CARTESIAN_POINT('',(15.9,-5.88218859068718,0.));
#979=CARTESIAN_POINT('Origin',(22.15,-5.88218859068718,0.));
#980=CARTESIAN_POINT('',(28.4,-5.88218859068718,0.));
#981=CARTESIAN_POINT('Origin',(22.15,-5.88218859068718,0.));
#982=CARTESIAN_POINT('',(28.4,-5.88218859068718,6.));
#983=CARTESIAN_POINT('Origin',(22.15,-5.88218859068718,6.));
#984=CARTESIAN_POINT('',(28.4,-5.88218859068718,0.));
#985=CARTESIAN_POINT('Origin',(28.4,0.,0.));
#986=CARTESIAN_POINT('',(28.4,0.,0.));
#987=CARTESIAN_POINT('',(28.4,-5.88218859068718,0.));
#988=CARTESIAN_POINT('',(28.4,0.,6.));
#989=CARTESIAN_POINT('',(28.4,-5.88218859068718,6.));
#990=CARTESIAN_POINT('',(28.4,0.,0.));
#991=CARTESIAN_POINT('Origin',(44.3,0.,0.));
#992=CARTESIAN_POINT('',(44.3,0.,0.));
#993=CARTESIAN_POINT('',(44.3,0.,0.));
#994=CARTESIAN_POINT('',(44.3,0.,6.));
#995=CARTESIAN_POINT('',(44.3,0.,6.));
#996=CARTESIAN_POINT('',(44.3,0.,0.));
#997=CARTESIAN_POINT('Origin',(44.3,-4.95,0.));
#998=CARTESIAN_POINT('',(44.3,-4.95,0.));
#999=CARTESIAN_POINT('',(44.3,-4.95,0.));
#1000=CARTESIAN_POINT('',(44.3,-4.95,6.));
#1001=CARTESIAN_POINT('',(44.3,-4.95,6.));
#1002=CARTESIAN_POINT('',(44.3,-4.95,0.));
#1003=CARTESIAN_POINT('Origin',(31.8,-4.95,0.));
#1004=CARTESIAN_POINT('',(31.8,-4.95,0.));
#1005=CARTESIAN_POINT('',(44.3,-4.95,0.));
#1006=CARTESIAN_POINT('',(31.8,-4.95,6.));
#1007=CARTESIAN_POINT('',(44.3,-4.95,6.));
#1008=CARTESIAN_POINT('',(31.8,-4.95,0.));
#1009=CARTESIAN_POINT('Origin',(31.8,-28.05,0.));
#1010=CARTESIAN_POINT('',(31.8,-28.05,0.));
#1011=CARTESIAN_POINT('',(31.8,-4.95,0.));
#1012=CARTESIAN_POINT('',(31.8,-28.05,6.));
#1013=CARTESIAN_POINT('',(31.8,-4.95,6.));
#1014=CARTESIAN_POINT('',(31.8,-28.05,0.));
#1015=CARTESIAN_POINT('Origin',(44.3,-28.05,0.));
#1016=CARTESIAN_POINT('',(44.3,-28.05,0.));
#1017=CARTESIAN_POINT('',(44.3,-28.05,0.));
#1018=CARTESIAN_POINT('',(44.3,-28.05,6.));
#1019=CARTESIAN_POINT('',(44.3,-28.05,6.));
#1020=CARTESIAN_POINT('',(44.3,-28.05,0.));
#1021=CARTESIAN_POINT('Origin',(44.3,-33.,0.));
#1022=CARTESIAN_POINT('',(44.3,-33.,0.));
#1023=CARTESIAN_POINT('',(44.3,-33.,0.));
#1024=CARTESIAN_POINT('',(44.3,-33.,6.));
#1025=CARTESIAN_POINT('',(44.3,-33.,6.));
#1026=CARTESIAN_POINT('',(44.3,-33.,0.));
#1027=CARTESIAN_POINT('Origin',(31.8,-33.,0.));
#1028=CARTESIAN_POINT('',(31.8,-33.,0.));
#1029=CARTESIAN_POINT('',(31.8,-33.,0.));
#1030=CARTESIAN_POINT('',(31.8,-33.,6.));
#1031=CARTESIAN_POINT('',(31.8,-33.,6.));
#1032=CARTESIAN_POINT('',(31.8,-33.,0.));
#1033=CARTESIAN_POINT('Origin',(31.8,-45.1321885906872,0.));
#1034=CARTESIAN_POINT('',(31.8,-45.1321885906872,0.));
#1035=CARTESIAN_POINT('',(31.8,-33.,0.));
#1036=CARTESIAN_POINT('',(31.8,-45.1321885906872,6.));
#1037=CARTESIAN_POINT('',(31.8,-33.,6.));
#1038=CARTESIAN_POINT('',(31.8,-45.1321885906872,0.));
#1039=CARTESIAN_POINT('Origin',(12.5,-45.1321885906872,0.));
#1040=CARTESIAN_POINT('',(12.5,-45.1321885906872,0.));
#1041=CARTESIAN_POINT('',(12.5,-45.1321885906872,0.));
#1042=CARTESIAN_POINT('',(12.5,-45.1321885906872,6.));
#1043=CARTESIAN_POINT('',(12.5,-45.1321885906872,6.));
#1044=CARTESIAN_POINT('',(12.5,-45.1321885906872,0.));
#1045=CARTESIAN_POINT('Origin',(12.5,-33.,0.));
#1046=CARTESIAN_POINT('',(12.5,-33.,0.));
#1047=CARTESIAN_POINT('',(12.5,-33.,0.));
#1048=CARTESIAN_POINT('',(12.5,-33.,6.));
#1049=CARTESIAN_POINT('',(12.5,-33.,6.));
#1050=CARTESIAN_POINT('',(12.5,-33.,0.));
#1051=CARTESIAN_POINT('Origin',(0.,-33.,0.));
#1052=CARTESIAN_POINT('',(0.,-33.,0.));
#1053=CARTESIAN_POINT('',(12.5,-33.,0.));
#1054=CARTESIAN_POINT('',(0.,-33.,6.));
#1055=CARTESIAN_POINT('',(12.5,-33.,6.));
#1056=CARTESIAN_POINT('',(0.,-33.,0.));
#1057=CARTESIAN_POINT('Origin',(0.,-28.05,0.));
#1058=CARTESIAN_POINT('',(0.,-28.05,0.));
#1059=CARTESIAN_POINT('',(0.,-33.,0.));
#1060=CARTESIAN_POINT('',(0.,-28.05,6.));
#1061=CARTESIAN_POINT('',(0.,-33.,6.));
#1062=CARTESIAN_POINT('',(0.,-28.05,0.));
#1063=CARTESIAN_POINT('Origin',(12.5,-28.05,0.));
#1064=CARTESIAN_POINT('',(12.5,-28.05,0.));
#1065=CARTESIAN_POINT('',(0.,-28.05,0.));
#1066=CARTESIAN_POINT('',(12.5,-28.05,6.));
#1067=CARTESIAN_POINT('',(0.,-28.05,6.));
#1068=CARTESIAN_POINT('',(12.5,-28.05,0.));
#1069=CARTESIAN_POINT('Origin',(12.5,-4.95,0.));
#1070=CARTESIAN_POINT('',(12.5,-4.95,0.));
#1071=CARTESIAN_POINT('',(12.5,-4.95,0.));
#1072=CARTESIAN_POINT('',(12.5,-4.95,6.));
#1073=CARTESIAN_POINT('',(12.5,-4.95,6.));
#1074=CARTESIAN_POINT('',(12.5,-4.95,0.));
#1075=CARTESIAN_POINT('Origin',(0.,-4.95,0.));
#1076=CARTESIAN_POINT('',(0.,-4.95,0.));
#1077=CARTESIAN_POINT('',(0.,-4.95,6.));
#1078=CARTESIAN_POINT('Origin',(22.15,-22.5660942953436,6.));
#1079=CARTESIAN_POINT('Origin',(22.15,-22.5660942953436,0.));
#1080=UNCERTAINTY_MEASURE_WITH_UNIT(LENGTH_MEASURE(0.01),#1084,
'DISTANCE_ACCURACY_VALUE',
'Maximum model space distance between geometric entities at asserted c
onnectivities');
#1081=UNCERTAINTY_MEASURE_WITH_UNIT(LENGTH_MEASURE(0.01),#1084,
'DISTANCE_ACCURACY_VALUE',
'Maximum model space distance between geometric entities at asserted c
onnectivities');
#1082=(
GEOMETRIC_REPRESENTATION_CONTEXT(3)
GLOBAL_UNCERTAINTY_ASSIGNED_CONTEXT((#1080))
GLOBAL_UNIT_ASSIGNED_CONTEXT((#1084,#1086,#1087))
REPRESENTATION_CONTEXT('','3D')
);
#1083=(
GEOMETRIC_REPRESENTATION_CONTEXT(3)
GLOBAL_UNCERTAINTY_ASSIGNED_CONTEXT((#1081))
GLOBAL_UNIT_ASSIGNED_CONTEXT((#1084,#1086,#1087))
REPRESENTATION_CONTEXT('','3D')
);
#1084=(
LENGTH_UNIT()
NAMED_UNIT(*)
SI_UNIT(.MILLI.,.METRE.)
);
#1085=(
LENGTH_UNIT()
NAMED_UNIT(*)
SI_UNIT($,.METRE.)
);
#1086=(
NAMED_UNIT(*)
PLANE_ANGLE_UNIT()
SI_UNIT($,.RADIAN.)
);
#1087=(
NAMED_UNIT(*)
SI_UNIT($,.STERADIAN.)
SOLID_ANGLE_UNIT()
);
#1088=SHAPE_DEFINITION_REPRESENTATION(#1089,#1090);
#1089=PRODUCT_DEFINITION_SHAPE('',$,#1092);
#1090=SHAPE_REPRESENTATION('',(#680),#1082);
#1091=PRODUCT_DEFINITION_CONTEXT('part definition',#1096,'design');
#1092=PRODUCT_DEFINITION('Dock - Boss Overdrive',
'Dock - Boss Overdrive v27',#1093,#1091);
#1093=PRODUCT_DEFINITION_FORMATION('',$,#1098);
#1094=PRODUCT_RELATED_PRODUCT_CATEGORY('Dock - Boss Overdrive v27',
'Dock - Boss Overdrive v27',(#1098));
#1095=APPLICATION_PROTOCOL_DEFINITION('international standard',
'automotive_design',2009,#1096);
#1096=APPLICATION_CONTEXT(
'Core Data for Automotive Mechanical Design Process');
#1097=PRODUCT_CONTEXT('part definition',#1096,'mechanical');
#1098=PRODUCT('Dock - Boss Overdrive','Dock - Boss Overdrive v27',$,(#1097));
#1099=PRESENTATION_STYLE_ASSIGNMENT((#1100));
#1100=SURFACE_STYLE_USAGE(.BOTH.,#1101);
#1101=SURFACE_SIDE_STYLE('',(#1102));
#1102=SURFACE_STYLE_FILL_AREA(#1103);
#1103=FILL_AREA_STYLE('Steel - Satin',(#1104));
#1104=FILL_AREA_STYLE_COLOUR('Steel - Satin',#1105);
#1105=COLOUR_RGB('Steel - Satin',0.627450980392157,0.627450980392157,0.627450980392157);
ENDSEC;
END-ISO-10303-21;
